<svg xmlns="http://www.w3.org/2000/svg" width="26.081" height="30.5" viewBox="0 0 26.081 30.5">
  <g id="Group_839" data-name="Group 839" transform="translate(0.865 0.75)">
    <path id="Path_1018" data-name="Path 1018" d="M-231.681-151.07h-18.693l-2.828-19.7h24.35Z" transform="translate(253.202 180.07)" fill="#8c080c" stroke="#8c080c" stroke-miterlimit="10" stroke-width="1.5"/>
    <path id="Path_1019" data-name="Path 1019" d="M-243.891-189.63a9.076,9.076,0,0,1,9.076-9.076,9.076,9.076,0,0,1,9.076,9.076" transform="translate(246.99 198.706)" fill="none" stroke="#8c080c" stroke-miterlimit="10" stroke-width="1.5"/>
  </g>
</svg>
