<svg width="34" height="24" viewBox="0 0 34 24" fill="none" xmlns="http://www.w3.org/2000/svg">
  <rect x="0.5" y="0.5" width="33" height="23" rx="3.5" fill="white" stroke="#E6EEF5"/>
  <path fill-rule="evenodd" clip-rule="evenodd" d="M10.7501 15.8582H8.69031L7.14576 9.79235C7.07245 9.51332 6.91679 9.26664 6.68782 9.15038C6.11639 8.85821 5.48672 8.62568 4.7998 8.50841V8.27487H8.11789C8.57583 8.27487 8.91929 8.62568 8.97653 9.0331L9.77793 13.4086L11.8367 8.27487H13.8392L10.7501 15.8582ZM14.984 15.8582H13.0388L14.6406 8.27487H16.5858L14.984 15.8582ZM19.1013 10.3757C19.1586 9.96725 19.502 9.73372 19.9027 9.73372C20.5324 9.67508 21.2183 9.79235 21.7908 10.0835L22.1342 8.45079C21.5618 8.21725 20.9321 8.09998 20.3607 8.09998C18.4727 8.09998 17.0989 9.15038 17.0989 10.6082C17.0989 11.7173 18.072 12.2996 18.7589 12.6504C19.502 13.0002 19.7883 13.2337 19.731 13.5835C19.731 14.1082 19.1586 14.3418 18.5872 14.3418C17.9003 14.3418 17.2133 14.1669 16.5847 13.8747L16.2412 15.5084C16.9281 15.7996 17.6713 15.9169 18.3582 15.9169C20.4752 15.9745 21.7908 14.9251 21.7908 13.35C21.7908 11.3664 19.1013 11.2502 19.1013 10.3757ZM28.5985 15.8582L27.054 8.27487H25.3949C25.0515 8.27487 24.708 8.50841 24.5935 8.85821L21.7334 15.8582H23.7359L24.1356 14.7502H26.596L26.825 15.8582H28.5985ZM25.6824 10.3171L26.2539 13.1751H24.6521L25.6824 10.3171Z" fill="#172B85"/>
</svg>
